<?xml version="1.0" encoding="utf-8"?>
<!-- Generator: Adobe Illustrator 16.0.0, SVG Export Plug-In . SVG Version: 6.00 Build 0)  -->
<!DOCTYPE svg PUBLIC "-//W3C//DTD SVG 1.1//EN" "http://www.w3.org/Graphics/SVG/1.1/DTD/svg11.dtd">
<svg version="1.1" id="Layer_1" xmlns="http://www.w3.org/2000/svg" xmlns:xlink="http://www.w3.org/1999/xlink" x="0px" y="0px"
	 width="51.155px" height="36.235px" viewBox="0 6.515 51.155 36.235" enable-background="new 0 6.515 51.155 36.235"
	 xml:space="preserve">
<path fill="#FFFFFF" d="M20.893,6.515C9.359,6.509,0.004,15.855,0,27.391c-0.002,5.545,2.201,10.863,6.124,14.783
	c0.75,0.75,1.965,0.752,2.715,0.002l0.001-0.002c0.029-0.029,0.054-0.066,0.077-0.096l0,0l4.075-4.076l-2.707-2.707l-2.728,2.727
	c-1.995-2.502-3.241-5.518-3.596-8.697h3.841v-3.84H3.962c0.354-3.18,1.602-6.195,3.596-8.697l2.728,2.729l2.717-2.72l-2.728-2.729
	c2.499-2,5.518-3.25,8.698-3.6v3.84h3.84v-3.84c3.183,0.35,6.199,1.6,8.697,3.6l-2.727,2.727l2.717,2.717l2.727-2.727
	c2.004,2.498,3.254,5.516,3.605,8.698h-3.84v3.84h3.84c-0.353,3.184-1.603,6.199-3.604,8.699l-2.729-2.727l-2.717,2.721l4.075,4.072
	l0,0c0.029,0.033,0.05,0.066,0.076,0.1c0.75,0.75,1.965,0.75,2.715,0.002c0.002-0.002,0.002-0.002,0.002-0.002
	c8.166-8.148,8.181-21.372,0.033-29.536C31.766,8.718,26.444,6.511,20.893,6.515z"/>
<path fill="#FFFFFF" d="M18.973,17.904v5.76c-2.588,1.063-3.826,4.02-2.766,6.607c1.06,2.586,4.018,3.826,6.604,2.766
	s3.826-4.018,2.767-6.605c-0.515-1.256-1.511-2.252-2.767-2.768v-5.76H18.973z M20.893,29.568c-0.676,0-1.225-0.547-1.225-1.223
	c0-0.68,0.549-1.229,1.225-1.229s1.226,0.549,1.226,1.229l0,0c0.008,0.676-0.533,1.229-1.209,1.234c-0.007,0-0.011,0-0.017,0V29.568
	L20.893,29.568z"/>
</svg>
