<?xml version="1.0" encoding="utf-8"?>
<!-- Generator: Adobe Illustrator 16.0.0, SVG Export Plug-In . SVG Version: 6.00 Build 0)  -->
<!DOCTYPE svg PUBLIC "-//W3C//DTD SVG 1.1//EN" "http://www.w3.org/Graphics/SVG/1.1/DTD/svg11.dtd">
<svg version="1.1" id="Layer_1" xmlns="http://www.w3.org/2000/svg" xmlns:xlink="http://www.w3.org/1999/xlink" x="0px" y="0px"
	 width="47.833px" height="45.055px" viewBox="0 0 47.833 45.055" enable-background="new 0 0 47.833 45.055" xml:space="preserve">
<g>
	<path fill="#595959" d="M28.945,42.174H2.881V11.79h14.976V8.91H1.44C0.644,8.91,0,9.555,0,10.35v33.265
		c0,0.797,0.645,1.44,1.44,1.44h28.944c0.795,0,1.438-0.645,1.438-1.44V24.319h-2.879L28.945,42.174L28.945,42.174z"/>
	<path fill="#595959" d="M31.201,6.03c-0.561-0.549-1.457-0.549-2.016,0L13.488,21.726c-0.149,0.149-0.264,0.329-0.336,0.528
		l-2.305,6.768c-0.265,0.75,0.129,1.572,0.879,1.838c0.149,0.054,0.307,0.08,0.466,0.082l0.479-0.096l6.77-2.305
		c0.197-0.07,0.379-0.187,0.527-0.336L35.664,12.51c0.549-0.56,0.549-1.456,0-2.016L31.201,6.03z"/>
</g>
</svg>
