<?xml version="1.0" encoding="utf-8"?>
<!-- Generator: Adobe Illustrator 16.0.0, SVG Export Plug-In . SVG Version: 6.00 Build 0)  -->
<!DOCTYPE svg PUBLIC "-//W3C//DTD SVG 1.1//EN" "http://www.w3.org/Graphics/SVG/1.1/DTD/svg11.dtd">
<svg version="1.1" id="Layer_1" xmlns="http://www.w3.org/2000/svg" xmlns:xlink="http://www.w3.org/1999/xlink" x="0px" y="0px"
	 width="26.193px" height="25.35px" viewBox="0 0 26.193 25.35" enable-background="new 0 0 26.193 25.35" xml:space="preserve">
<path fill="#FFFFFF" d="M22.649,1.184c-0.029-0.029-0.059-0.059-0.117-0.059H1.14c-0.06,0-0.118,0.029-0.118,0.059
	c-0.029,0.029-0.029,0.088,0,0.118l8.544,13.671v9.164c0,0.059,0,0.059,0,0.059c0.03,0.029,0.059,0.029,0.118,0.029l0,0
	c2.445,0,4.419-1.974,4.419-4.42v-4.861l8.544-13.642C22.679,1.272,22.679,1.213,22.649,1.184z"/>
</svg>
