<?xml version="1.0" encoding="utf-8"?>
<!-- Generator: Adobe Illustrator 16.0.0, SVG Export Plug-In . SVG Version: 6.00 Build 0)  -->
<!DOCTYPE svg PUBLIC "-//W3C//DTD SVG 1.1//EN" "http://www.w3.org/Graphics/SVG/1.1/DTD/svg11.dtd">
<svg version="1.1" id="Layer_1" xmlns="http://www.w3.org/2000/svg" xmlns:xlink="http://www.w3.org/1999/xlink" x="0px" y="0px"
	 width="21.875px" height="15.192px" viewBox="0 2.404 21.875 15.192" enable-background="new 0 2.404 21.875 15.192"
	 xml:space="preserve">
<g>
	<path fill="#595959" d="M10,7.359c-1.457,0-2.63,1.174-2.63,2.631c0,1.456,1.173,2.629,2.63,2.629s2.63-1.174,2.63-2.629
		C12.63,8.533,11.457,7.359,10,7.359z M10,11.809c-1.012,0-1.82-0.809-1.82-1.819c0-1.013,0.809-1.821,1.82-1.821
		s1.82,0.81,1.82,1.821C11.82,11,11.012,11.809,10,11.809z"/>
	<path fill="#595959" d="M17.748,8.39L17.748,8.39c0.061-0.202,0.02-0.425-0.082-0.627l-1.9-3.297
		c-0.223-0.385-0.729-0.525-1.113-0.305l-1.416,0.811c-0.182-0.121-0.385-0.223-0.586-0.324V3.212c0-0.445-0.363-0.809-0.81-0.809
		H8.26c-0.445,0-0.809,0.363-0.809,0.809v1.396C7.208,4.709,7.025,4.832,6.865,4.932l-1.396-0.81C5.085,3.9,4.6,4.022,4.355,4.406
		L2.395,7.683C2.273,7.865,2.252,8.087,2.313,8.311c0.062,0.201,0.183,0.384,0.364,0.505l1.355,0.809
		C4.012,9.768,4.012,9.889,4.012,10.01c0,0.103,0,0.202,0,0.324l-1.375,0.789c-0.182,0.102-0.324,0.283-0.384,0.486
		c-0.062,0.199-0.021,0.424,0.081,0.627l1.9,3.297c0.224,0.385,0.709,0.525,1.093,0.303l1.457-0.809
		c0.182,0.119,0.384,0.242,0.647,0.363v1.396c0,0.445,0.363,0.809,0.809,0.809h3.601c0.445,0,0.81-0.363,0.81-0.809V15.35
		c0.183-0.08,0.363-0.182,0.525-0.303l1.375,0.811c0.385,0.221,0.891,0.1,1.113-0.285l1.941-3.275
		c0.102-0.182,0.143-0.406,0.082-0.627c-0.062-0.203-0.183-0.385-0.365-0.506l-1.355-0.81c0.021-0.143,0.021-0.264,0.021-0.385
		c0-0.101,0-0.224-0.021-0.324l1.376-0.788C17.545,8.775,17.688,8.592,17.748,8.39z M16.959,8.167l-1.82,1.052l0.021,0.265
		C15.18,9.666,15.18,9.828,15.18,9.99c0,0.182-0.021,0.363-0.041,0.565L15.1,10.818l1.819,1.07l-1.94,3.277l-1.82-1.07l-0.223,0.143
		c-0.265,0.182-0.547,0.344-0.851,0.465l-0.243,0.102v1.961H8.24v-1.939l-0.264-0.104c-0.404-0.141-0.688-0.344-0.931-0.506
		l-0.202-0.162l-1.9,1.053l-1.902-3.299l1.82-1.051l-0.021-0.262C4.82,10.312,4.82,10.15,4.82,9.99c0-0.162,0.021-0.346,0.041-0.566
		L4.902,9.16L3.104,8.087l1.961-3.276l1.861,1.072l0.223-0.162C7.412,5.518,7.654,5.377,8.02,5.236l0.263-0.102V3.172h3.6v1.962
		l0.243,0.102c0.323,0.142,0.627,0.303,0.891,0.506l0.202,0.142l1.86-1.052L16.959,8.167L16.959,8.167l0.384,0.102L16.959,8.167z"/>
</g>
</svg>
