<?xml version="1.0" encoding="utf-8"?>
<!-- Generator: Adobe Illustrator 16.0.0, SVG Export Plug-In . SVG Version: 6.00 Build 0)  -->
<!DOCTYPE svg PUBLIC "-//W3C//DTD SVG 1.1//EN" "http://www.w3.org/Graphics/SVG/1.1/DTD/svg11.dtd">
<svg version="1.1" id="Layer_1" xmlns="http://www.w3.org/2000/svg" xmlns:xlink="http://www.w3.org/1999/xlink" x="0px" y="0px"
	 width="20.557px" height="26.125px" viewBox="3.75 6.75 20.557 26.125" enable-background="new 3.75 6.75 20.557 26.125"
	 xml:space="preserve">
<g>
	<g>
		<path fill="#FFFFFF" d="M12.356,27.353c0.463,0,0.837-0.371,0.837-0.838V12.352c0-0.23-0.133-0.282-0.296-0.118l-4.948,4.958
			c-0.786,0.788-1.964-0.394-1.178-1.181l6.507-6.599c0.404-0.41,1.064-0.411,1.472,0l6.533,6.599
			c0.787,0.787-0.393,1.968-1.178,1.181l-4.947-4.958c-0.167-0.167-0.297-0.111-0.297,0.118v14.163c0,0.462,0.374,0.838,0.838,0.838
			h5.012c0.461,0,0.835,0.374,0.835,0.836c0,0.46-0.374,0.835-0.835,0.835H7.346c-0.461,0-0.835-0.375-0.835-0.835
			c0-0.462,0.374-0.836,0.835-0.836H12.356z"/>
	</g>
</g>
</svg>
