<?xml version="1.0" encoding="utf-8"?>
<!-- Generator: Adobe Illustrator 16.0.0, SVG Export Plug-In . SVG Version: 6.00 Build 0)  -->
<!DOCTYPE svg PUBLIC "-//W3C//DTD SVG 1.1//EN" "http://www.w3.org/Graphics/SVG/1.1/DTD/svg11.dtd">
<svg version="1.1" id="Layer_1" xmlns="http://www.w3.org/2000/svg" xmlns:xlink="http://www.w3.org/1999/xlink" x="0px" y="0px"
	 width="47.25px" height="40px" viewBox="0 10 47.25 40" enable-background="new 0 10 47.25 40" xml:space="preserve">
<g>
	<g id="_x32_37._Locked">
		<g>
			<path fill="#595959" d="M25.171,26.233v-5.071c0-5.692-4.555-10.246-10.04-10.246c-5.485,0-10.039,4.554-10.039,10.246v5.071
				c-1.76,0-3.313,1.553-3.313,3.416v17.076c0,1.968,1.552,3.416,3.313,3.416h20.284c1.759,0,3.313-1.552,3.313-3.416V29.545
				C28.482,27.786,27.033,26.233,25.171,26.233z M8.301,21.162c0-3.726,3.001-6.727,6.727-6.727s6.83,3.001,6.83,6.727v5.071H8.301
				V21.162z M25.171,46.621H4.886V29.545h20.286V46.621L25.171,46.621z M13.372,39.378v2.172c0,0.933,0.725,1.657,1.656,1.657
				c0.932,0,1.656-0.829,1.656-1.657v-2.172c0.932-0.519,1.656-1.657,1.656-2.898c0-1.967-1.552-3.416-3.313-3.416
				c-1.759,0-3.312,1.552-3.312,3.416C11.613,37.721,12.337,38.757,13.372,39.378z"/>
		</g>
	</g>
</g>
</svg>
