<?xml version="1.0" encoding="utf-8"?>
<!-- Generator: Adobe Illustrator 16.0.0, SVG Export Plug-In . SVG Version: 6.00 Build 0)  -->
<!DOCTYPE svg PUBLIC "-//W3C//DTD SVG 1.1//EN" "http://www.w3.org/Graphics/SVG/1.1/DTD/svg11.dtd">
<svg version="1.1" id="Layer_1" xmlns="http://www.w3.org/2000/svg" xmlns:xlink="http://www.w3.org/1999/xlink" x="0px" y="0px"
	 width="47.833px" height="45.055px" viewBox="12.167 0 47.833 45.055" enable-background="new 12.167 0 47.833 45.055"
	 xml:space="preserve">
<path fill="#595959" d="M51.046,22.042c-0.001-0.074-0.008-0.148-0.022-0.221c-0.008-0.041-0.023-0.08-0.035-0.12
	c-0.01-0.034-0.019-0.07-0.031-0.104c-0.021-0.049-0.048-0.094-0.074-0.139c-0.012-0.022-0.021-0.046-0.035-0.068
	c-0.047-0.067-0.098-0.13-0.155-0.188l-8.09-8.09c-0.469-0.469-1.229-0.469-1.696,0c-0.469,0.468-0.469,1.229,0,1.697l6.043,6.045
	H25.767c-0.663,0-1.2,0.537-1.2,1.2s0.537,1.2,1.2,1.2h21.184L40.904,29.3c-0.469,0.468-0.469,1.229,0,1.696
	c0.234,0.234,0.542,0.352,0.85,0.352c0.307,0,0.613-0.117,0.848-0.352l8.094-8.092c0.008-0.007,0.013-0.016,0.02-0.023
	c0.047-0.05,0.092-0.103,0.13-0.16c0.022-0.034,0.038-0.071,0.058-0.107c0.018-0.033,0.037-0.064,0.053-0.099
	c0.018-0.044,0.029-0.089,0.041-0.134c0.009-0.03,0.021-0.059,0.027-0.09c0.016-0.078,0.023-0.157,0.023-0.235c0,0,0,0,0,0
	C51.047,22.051,51.047,22.046,51.046,22.042z M36.237,27.336c-0.663,0-1.2,0.537-1.2,1.2V39.51c0,0.662-0.538,1.201-1.199,1.201
	H15.767c-0.662,0-1.2-0.539-1.2-1.201V4.6c0-0.662,0.538-1.2,1.2-1.2h18.071c0.661,0,1.199,0.538,1.199,1.2v10.655
	c0,0.663,0.537,1.2,1.2,1.2s1.2-0.537,1.2-1.2V4.6c0-1.985-1.615-3.6-3.6-3.6H15.767c-1.985,0-3.6,1.615-3.6,3.6v34.91
	c0,1.986,1.615,3.6,3.6,3.6h18.071c1.984,0,3.6-1.613,3.6-3.6V28.536C37.438,27.873,36.899,27.336,36.237,27.336z"/>
</svg>
