<?xml version="1.0" encoding="utf-8"?>
<!-- Generator: Adobe Illustrator 16.0.0, SVG Export Plug-In . SVG Version: 6.00 Build 0)  -->
<!DOCTYPE svg PUBLIC "-//W3C//DTD SVG 1.1//EN" "http://www.w3.org/Graphics/SVG/1.1/DTD/svg11.dtd">
<svg version="1.1" id="Layer_1" xmlns="http://www.w3.org/2000/svg" xmlns:xlink="http://www.w3.org/1999/xlink" x="0px" y="0px"
	 width="49.834px" height="40px" viewBox="0 0 49.834 40" enable-background="new 0 0 49.834 40" xml:space="preserve">
<g>
	<path fill="#595959" d="M14.006,25.088l0.987-0.55c0.439-0.219,0.547-0.658,0.219-1.096l-1.755-3.071
		c-0.109-0.22-0.439-0.439-0.658-0.439c-0.109,0-0.219,0-0.438,0.11l-0.986,0.657c-0.11,0.11-0.219,0.11-0.439,0.11
		c-0.439,0-0.768-0.22-0.768-0.768v-1.097c0-0.438-0.439-0.767-0.768-0.767H6.003c-0.439,0-0.769,0.439-0.769,0.767v1.097
		c0,0.438-0.439,0.768-0.767,0.768c-0.11,0-0.22,0-0.439-0.11l-0.987-0.547c-0.109-0.11-0.22-0.11-0.438-0.11
		c-0.219,0-0.548,0.11-0.657,0.438L0.19,23.552c-0.219,0.438-0.109,0.768,0.219,1.095l0.986,0.439c0.548,0.221,0.548,1.096,0,1.315
		L0.411,26.95c-0.439,0.22-0.548,0.657-0.219,1.097l1.755,3.071c0.109,0.22,0.438,0.439,0.657,0.439c0.109,0,0.219,0,0.439-0.11
		l0.987-0.548c0.109-0.109,0.219-0.109,0.439-0.109c0.439,0,0.767,0.22,0.767,0.769v1.095c0,0.44,0.439,0.77,0.769,0.77h3.509
		c0.439,0,0.767-0.439,0.767-0.77v-1.095c0-0.438,0.439-0.769,0.768-0.769c0.109,0,0.22,0,0.439,0.109l0.986,0.548
		c0.109,0.11,0.219,0.11,0.439,0.11c0.219,0,0.547-0.11,0.658-0.439l1.755-3.071c0.219-0.439,0.11-0.767-0.219-1.097l-0.986-0.549
		C13.458,26.073,13.458,25.415,14.006,25.088z M7.757,28.157c-1.316,0-2.302-1.097-2.302-2.304c0-1.316,1.097-2.302,2.302-2.302
		s2.303,1.095,2.303,2.302S8.962,28.157,7.757,28.157z"/>
	<path fill="#595959" d="M13.458,3.267c-0.439-0.439-1.096-0.439-1.535,0s-0.439,1.097,0,1.535l1.974,1.863
		C6.66,7.104,0.958,12.586,0.41,19.604l0.109-0.109c0.439-0.767,1.316-1.316,2.302-1.316l0,0c1.207-5.153,5.592-8.991,11.076-9.32
		l-1.865,1.864c-0.439,0.439-0.439,1.096,0,1.534c0.219,0.22,0.548,0.22,0.768,0.22c0.22,0,0.548-0.11,0.769-0.22l3.728-3.727
		c0.219-0.219,0.219-0.548,0.219-0.767c0-0.22-0.109-0.549-0.219-0.768C17.187,7.104,13.458,3.267,13.458,3.267z"/>
	<path fill="#595959" d="M27.055,8.858c2.413,0,4.276-1.974,4.276-4.275c0-2.414-1.974-4.277-4.276-4.277
		c-2.412,0-4.276,1.973-4.276,4.277C22.778,6.885,24.643,8.858,27.055,8.858L27.055,8.858z"/>
	<path fill="#595959" d="M35.497,20.701V14.67c0-1.644-1.097-3.07-2.74-3.618l0,0l-2.304-0.439c-0.11,0-0.439,0-0.549,0.22
		l-2.412,7.127c-0.109,0.438-0.658,0.438-0.986,0l-2.412-7.127c0-0.11-0.219-0.22-0.44-0.22l-2.412,0.439
		C19.598,11.6,18.5,13.026,18.5,14.67v5.922c0,0.986,0.659,1.645,1.646,1.645h13.707C34.84,22.346,35.497,21.468,35.497,20.701z"/>
	<path fill="#595959" d="M37.583,22.017c-0.109,1.206-1.097,1.973-2.304,2.192c-0.986,5.374-5.483,9.649-11.184,9.979l1.864-1.864
		c0.438-0.439,0.438-1.096,0-1.534c-0.438-0.439-1.096-0.439-1.536,0l-3.727,3.728c-0.439,0.438-0.439,1.098,0,1.535l3.727,3.728
		C24.643,40,24.971,40,25.19,40c0.22,0,0.548-0.109,0.769-0.22c0.438-0.438,0.438-1.096,0-1.534l-1.864-1.864
		C31.55,35.942,37.583,29.691,37.583,22.017L37.583,22.017z"/>
	<path fill="#595959" d="M28.042,10.612c-0.109-0.109-0.22-0.109-0.44-0.109h-1.095c-0.11,0-0.219,0-0.439,0.109
		c-0.109,0.11-0.109,0.33-0.109,0.549l0.548,0.986l-0.219,2.303l0.546,1.535c0,0.109,0.22,0.109,0.22,0l0.547-1.535l-0.219-2.303
		l0.549-0.986C28.261,10.942,28.261,10.722,28.042,10.612z"/>
</g>
</svg>
