<?xml version="1.0" encoding="utf-8"?>
<!-- Generator: Adobe Illustrator 16.0.0, SVG Export Plug-In . SVG Version: 6.00 Build 0)  -->
<!DOCTYPE svg PUBLIC "-//W3C//DTD SVG 1.1//EN" "http://www.w3.org/Graphics/SVG/1.1/DTD/svg11.dtd">
<svg version="1.1"
	 id="Layer_1" xmlns:svg="http://www.w3.org/2000/svg" xmlns:cc="http://creativecommons.org/ns#" xmlns:inkscape="http://www.inkscape.org/namespaces/inkscape" xmlns:sodipodi="http://sodipodi.sourceforge.net/DTD/sodipodi-0.dtd" xmlns:rdf="http://www.w3.org/1999/02/22-rdf-syntax-ns#" xmlns:dc="http://purl.org/dc/elements/1.1/"
	 xmlns="http://www.w3.org/2000/svg" xmlns:xlink="http://www.w3.org/1999/xlink" x="0px" y="0px" width="44.128px"
	 height="46.051px" viewBox="15.872 6.975 44.128 46.051" enable-background="new 15.872 6.975 44.128 46.051" xml:space="preserve"
	>
<g transform="translate(0,-952.36218)">
	<path fill="#4B4C4E" d="M19.013,959.337c-1.722,0-3.141,1.419-3.141,3.14v39.77c0,1.723,1.419,3.141,3.141,3.141h21.975
		c1.723,0,3.141-1.418,3.141-3.141v-39.77c0-1.721-1.418-3.14-3.141-3.14H19.013z M19.013,961.43h21.975
		c0.602,0,1.049,0.449,1.049,1.047v2.093H17.965v-2.093C17.965,961.879,18.415,961.43,19.013,961.43z M17.965,966.663h24.073v29.305
		H17.965V966.663z M29.969,971.373c-0.174,0.007-0.342,0.059-0.491,0.147l-7.326,4.186c-0.324,0.187-0.523,0.529-0.523,0.899v8.373
		c0,0.371,0.199,0.715,0.523,0.899l7.326,4.187c0.168,0.1,0.362,0.149,0.557,0.146c0.173-0.009,0.342-0.061,0.49-0.146l7.326-4.187
		c0.324-0.187,0.522-0.528,0.524-0.899v-8.373c-0.002-0.37-0.2-0.713-0.524-0.899l-7.326-4.186
		C30.357,971.421,30.165,971.37,29.969,971.373z M30.001,973.63l5.217,2.976l-5.217,2.976l-5.216-2.976L30.001,973.63z
		 M23.722,978.405l5.234,2.992v5.97l-5.234-2.994V978.405L23.722,978.405z M36.282,978.405v5.969l-5.235,2.993v-5.969
		L36.282,978.405L36.282,978.405z M17.965,998.061h24.073v4.187c0,0.599-0.448,1.047-1.048,1.047H19.013
		c-0.599,0-1.048-0.448-1.048-1.047V998.061L17.965,998.061z M26.338,999.632c-0.578,0-1.046,0.469-1.046,1.047
		s0.468,1.047,1.046,1.047h7.327c0.578,0,1.047-0.469,1.047-1.047s-0.469-1.047-1.047-1.047H26.338z"/>
</g>
</svg>
