<?xml version="1.0" encoding="utf-8"?>
<!-- Generator: Adobe Illustrator 16.0.0, SVG Export Plug-In . SVG Version: 6.00 Build 0)  -->
<!DOCTYPE svg PUBLIC "-//W3C//DTD SVG 1.1//EN" "http://www.w3.org/Graphics/SVG/1.1/DTD/svg11.dtd">
<svg version="1.1" id="Layer_1" xmlns="http://www.w3.org/2000/svg" xmlns:xlink="http://www.w3.org/1999/xlink" x="0px" y="0px"
	 width="50.821px" height="38.5px" viewBox="0 4.253 50.821 38.5" enable-background="new 0 4.253 50.821 38.5"
	 xml:space="preserve">
<path fill="#FFFFFF" d="M25.12,19.335c0-0.65-0.527-1.178-1.178-1.178h-8.334c-0.651,0-1.179,0.526-1.179,1.178v8.335
	c0,0.65,0.527,1.178,1.179,1.178l0,0h8.334c0.651,0,1.178-0.526,1.178-1.178l0,0V19.335z M21.445,24.68h-3.339v-2.354h3.339V24.68z"
	/>
<path fill="#FFFFFF" d="M20.953,15.141v-3.647c1.947-0.651,2.997-2.756,2.346-4.703c-0.649-1.945-2.756-2.996-4.703-2.345
	C16.65,5.095,15.599,7.2,16.25,9.147c0.371,1.107,1.239,1.976,2.346,2.347v3.647H20.953z"/>
<path fill="#FFFFFF" d="M20.953,35.513v-3.647h-2.356v3.647c-1.945,0.651-2.996,2.757-2.346,4.702
	c0.651,1.946,2.756,2.996,4.702,2.346c1.947-0.649,2.997-2.756,2.346-4.701C22.927,36.752,22.061,35.883,20.953,35.513z"/>
<path fill="#FFFFFF" d="M26.523,18.424l2.582-2.579c1.428,0.715,3.152,0.436,4.283-0.695l0,0c1.451-1.45,1.451-3.804,0-5.255
	c-1.449-1.451-3.803-1.452-5.254-0.001c-1.129,1.128-1.41,2.853-0.701,4.28l-2.578,2.581L26.523,18.424z"/>
<path fill="#FFFFFF" d="M13.027,28.585l-2.58,2.576c-1.837-0.916-4.067-0.17-4.984,1.665c-0.916,1.836-0.17,4.066,1.665,4.983
	c1.837,0.916,4.067,0.17,4.984-1.665c0.521-1.046,0.521-2.272,0-3.318l2.58-2.579L13.027,28.585z"/>
<path fill="#FFFFFF" d="M29.099,31.161l-2.58-2.58l-1.664,1.666l2.578,2.579c-0.709,1.429-0.43,3.151,0.695,4.281l0,0
	c1.449,1.452,3.801,1.457,5.254,0.01c1.453-1.449,1.459-3.803,0.008-5.255C32.261,30.727,30.531,30.446,29.099,31.161z"/>
<path fill="#FFFFFF" d="M8.778,16.236c0.576,0,1.144-0.135,1.658-0.392l2.58,2.579l1.665-1.665l-2.563-2.58
	c0.716-1.43,0.436-3.156-0.695-4.285l0,0c-1.451-1.451-3.804-1.45-5.254,0.001c-1.451,1.451-1.45,3.805,0,5.255
	C6.86,15.841,7.798,16.232,8.778,16.236z"/>
<path fill="#FFFFFF" d="M35.304,19.787c-1.602-0.004-3.023,1.019-3.535,2.538h-3.633v2.354h3.648
	c0.654,1.943,2.758,2.99,4.701,2.337c1.941-0.651,2.988-2.757,2.336-4.7c-0.506-1.505-1.912-2.521-3.502-2.528H35.304z"/>
<path fill="#FFFFFF" d="M7.763,24.68h3.649v-2.354H7.763c-0.65-1.947-2.756-2.997-4.701-2.348c-1.946,0.65-2.996,2.756-2.346,4.701
	c0.65,1.947,2.756,2.997,4.702,2.347C6.526,26.656,7.394,25.788,7.763,24.68z"/>
</svg>
